{
	"logs":[
		"10.162.10.75,1380782709,SIGNING_FAILURE,Will.Smith",
		"10.162.10.75,1380782719,SIGNING_FAILURE,Will.Smith",
		"10.162.10.75,1380782729,SIGNING_FAILURE,Will.Smith",
		"10.162.10.75,1380782739,SIGNING_FAILURE,Will.Smith",
		"10.162.10.75,1380782749,SIGNING_FAILURE,Will.Smith",
		"10.162.10.75,1380782759,SIGNING_FAILURE,Will.Smith",
	]
}